{
    "desc": "Config for translations",
    "erp": {
        "method": "git",
        "params": {
            "url": "https://gitlab.com/openbravo/product/openbravo",
            "ver": "master"
        }
    },
    "mods": [
        {
            "method": "git",
            "params": {
                "url": "https://gitlab.com/openbravo/product/pmods/org.openbravo.translator.helper",
                "ver": "master"
            },
            "javapackage": "org.openbravo.translator.helper"
        },
        {
            "method": "git",
            "params": {
                "url": "https://gitlab.com/openbravo/product/mods/org.openbravo.xmlpo",
                "ver": "master"
            },
            "javapackage": "org.openbravo.xmlpo"
        },
        {
            "method": "git",
            "params": {
                "url": "https://gitlab.com/openbravo/product/mods/org.openbravo.v3.translation.pack.es_ES",
                "ver": "master"
            },
            "javapackage": "org.openbravo.v3.translation.pack.es_ES"
        },
        {
            "method": "git",
            "params": {
                "url": "https://gitlab.com/openbravo/product/mods/org.openbravo.client.htmlwidget.es_ES",
                "ver": "master"
            },
            "javapackage": "org.openbravo.client.htmlwidget.es_ES"
        },
        {
            "method": "git",
            "params": {
                "url": "https://gitlab.com/openbravo/product/mods/org.openbravo.reports.ordersawaitingdelivery.es_ES",
                "ver": "master"
            },
            "javapackage": "org.openbravo.reports.ordersawaitingdelivery.es_ES"
        },
        {
            "method": "git",
            "params": {
                "url": "https://gitlab.com/openbravo/product/mods/org.openbravo.client.application.es_ES",
                "ver": "master"
            },
            "javapackage": "org.openbravo.client.application.es_ES"
        },
        {
            "method": "git",
            "params": {
                "url": "https://gitlab.com/openbravo/product/mods/org.openbravo.client.kernel.es_ES",
                "ver": "master"
            },
            "javapackage": "org.openbravo.client.kernel.es_ES"
        },
        {
            "method": "git",
            "params": {
                "url": "https://gitlab.com/openbravo/product/mods/org.openbravo.client.myob.es_ES",
                "ver": "master"
            },
            "javapackage": "org.openbravo.client.myob.es_ES"
        },
        {
            "method": "git",
            "params": {
                "url": "https://gitlab.com/openbravo/product/mods/org.openbravo.client.querylist.es_ES",
                "ver": "master"
            },
            "javapackage": "org.openbravo.client.querylist.es_ES"
        },
        {
            "method": "git",
            "params": {
                "url": "https://gitlab.com/openbravo/product/mods/org.openbravo.client.widgets.es_ES",
                "ver": "master"
            },
            "javapackage": "org.openbravo.client.widgets.es_ES"
        },
        {
            "method": "git",
            "params": {
                "url": "https://gitlab.com/openbravo/product/mods/org.openbravo.advpaymentmngt.es_ES",
                "ver": "master"
            },
            "javapackage": "org.openbravo.advpaymentmngt.es_ES"
        },
        {
            "method": "git",
            "params": {
                "url": "https://gitlab.com/openbravo/product/mods/org.openbravo.service.integration.openid.es_ES",
                "ver": "master"
            },
            "javapackage": "org.openbravo.service.integration.openid.es_ES"
        },
        {
            "method": "git",
            "params": {
                "url": "https://gitlab.com/openbravo/product/mods/org.openbravo.service.integration.google.es_ES",
                "ver": "master"
            },
            "javapackage": "org.openbravo.service.integration.google.es_ES"
        },
        {
            "method": "git",
            "params": {
                "url": "https://gitlab.com/openbravo/product/mods/org.openbravo.service.datasource.es_ES",
                "ver": "master"
            },
            "javapackage": "org.openbravo.service.datasource.es_ES"
        },
        {
            "method": "git",
            "params": {
                "url": "https://gitlab.com/openbravo/product/mods/org.openbravo.localization.spain.referencedata.translation.esES",
                "ver": "master"
            },
            "javapackage": "org.openbravo.localization.spain.referencedata.translation.esES"
        },
        {
            "method": "git",
            "params": {
                "url": "https://gitlab.com/openbravo/product/mods/org.openbravo.financial.paymentreport.es_ES",
                "ver": "master"
            },
            "javapackage": "org.openbravo.financial.paymentreport.es_ES"
        },
        {
            "method": "git",
            "params": {
                "url": "https://gitlab.com/openbravo/product/mods/org.openbravo.userinterface.smartclient.es_ES",
                "ver": "master"
            },
            "javapackage": "org.openbravo.userinterface.smartclient.es_ES"
        },
        {
            "method": "git",
            "params": {
                "url": "https://gitlab.com/openbravo/product/mods/org.openbravo.userinterface.selector.es_ES",
                "ver": "master"
            },
            "javapackage": "org.openbravo.userinterface.selector.es_ES"
        },
        {
            "method": "git",
            "params": {
                "url": "https://gitlab.com/openbravo/product/pmods/org.openbravo.retail.pack.es_ES",
                "ver": "master"
            },
            "javapackage": "org.openbravo.retail.pack.es_ES"
        },
        {
            "method": "git",
            "params": {
                "url": "https://gitlab.com/openbravo/product/pmods/org.openbravo.mobile.core.es_ES",
                "ver": "master"
            },
            "javapackage": "org.openbravo.mobile.core.es_ES"
        },
        {
            "method": "git",
            "params": {
                "url": "https://gitlab.com/openbravo/product/pmods/org.openbravo.retail.posterminal.es_ES",
                "ver": "master"
            },
            "javapackage": "org.openbravo.retail.posterminal.es_ES"
        },
        {
            "method": "git",
            "params": {
                "url": "https://gitlab.com/openbravo/product/pmods/org.openbravo.retail.discounts.es_ES",
                "ver": "master"
            },
            "javapackage": "org.openbravo.retail.discounts.es_ES"
        },
        {
            "method": "git",
            "params": {
                "url": "https://gitlab.com/openbravo/product/pmods/org.openbravo.retail.config.es_ES",
                "ver": "master"
            },
            "javapackage": "org.openbravo.retail.config.es_ES"
        },
        {
            "method": "git",
            "params": {
                "url": "https://gitlab.com/openbravo/product/pmods/org.openbravo.retail.returns.es_ES",
                "ver": "master"
            },
            "javapackage": "org.openbravo.retail.returns.es_ES"
        },
        {
            "method": "git",
            "params": {
                "url": "https://gitlab.com/openbravo/product/pmods/org.openbravo.loyalty.programs.es_ES",
                "ver": "master"
            },
            "javapackage": "org.openbravo.loyalty.programs.es_ES"
        },
        {
            "method": "git",
            "params": {
                "url": "https://gitlab.com/openbravo/product/pmods/org.openbravo.retail.loyalty.programs.es_ES",
                "ver": "master"
            },
            "javapackage": "org.openbravo.retail.loyalty.programs.es_ES"
        },
        {
            "method": "git",
            "params": {
                "url": "https://gitlab.com/openbravo/product/mods/org.openbravo.distributionorder.es_ES",
                "ver": "master"
            },
            "javapackage": "org.openbravo.distributionorder.es_ES"
        },
        {
            "method": "git",
            "params": {
                "url": "https://gitlab.com/openbravo/product/pmods/org.openbravo.warehouse.advancedwarehouseoperations.pack.es_ES",
                "ver": "master"
            },
            "javapackage": "org.openbravo.warehouse.advancedwarehouseoperations.pack.es_ES"
        },
        {
            "method": "git",
            "params": {
                "url": "https://gitlab.com/openbravo/product/pmods/org.openbravo.warehouse.advancedwarehouseoperations.distributionorders.es_ES",
                "ver": "master"
            },
            "javapackage": "org.openbravo.warehouse.advancedwarehouseoperations.distributionorders.es_ES"
        },
        {
            "method": "git",
            "params": {
                "url": "https://gitlab.com/openbravo/product/pmods/org.openbravo.warehouse.advancedwarehouseoperations.es_ES",
                "ver": "master"
            },
            "javapackage": "org.openbravo.warehouse.advancedwarehouseoperations.es_ES"
        },
        {
            "method": "git",
            "params": {
                "url": "https://gitlab.com/openbravo/product/pmods/org.openbravo.warehouse.advancedwarehouseoperations.printing.bartender.es_ES",
                "ver": "master"
            },
            "javapackage": "org.openbravo.warehouse.advancedwarehouseoperations.printing.bartender.es_ES"
        },
        {
            "method": "git",
            "params": {
                "url": "https://gitlab.com/openbravo/product/pmods/org.openbravo.warehouse.advancedwarehouseoperations.retailconnector.es_ES",
                "ver": "master"
            },
            "javapackage": "org.openbravo.warehouse.advancedwarehouseoperations.retailconnector.es_ES"
        },
        {
            "method": "git",
            "params": {
                "url": "https://gitlab.com/openbravo/product/pmods/org.openbravo.warehouse.advancedwarehouseoperations.batchwavepicking.es_ES",
                "ver": "master"
            },
            "javapackage": "org.openbravo.warehouse.advancedwarehouseoperations.batchwavepicking.es_ES"
        },
        {
            "method": "git",
            "params": {
                "url": "https://gitlab.com/openbravo/product/pmods/org.openbravo.warehouse.advancedwarehouseoperations.operatorloadbalancing.es_ES",
                "ver": "master"
            },
            "javapackage": "org.openbravo.warehouse.advancedwarehouseoperations.operatorloadbalancing.es_ES"
        },
        {
            "method": "git",
            "params": {
                "url": "https://gitlab.com/openbravo/product/pmods/org.openbravo.retail.giftcards.es_ES",
                "ver": "master"
            },
            "javapackage": "org.openbravo.retail.giftcards.es_ES"
        },
        {
            "method": "git",
            "params": {
                "url": "https://gitlab.com/openbravo/product/pmods/org.openbravo.v3.translation.pack.fr_FR",
                "ver": "master"
            },
            "javapackage": "org.openbravo.v3.translation.pack.fr_FR"
        },
        {
            "method": "git",
            "params": {
                "url": "https://gitlab.com/openbravo/product/pmods/org.openbravo.client.htmlwidget.fr_FR",
                "ver": "master"
            },
            "javapackage": "org.openbravo.client.htmlwidget.fr_FR"
        },
        {
            "method": "git",
            "params": {
                "url": "https://gitlab.com/openbravo/product/pmods/org.openbravo.reports.ordersawaitingdelivery.fr_FR",
                "ver": "master"
            },
            "javapackage": "org.openbravo.reports.ordersawaitingdelivery.fr_FR"
        },
        {
            "method": "git",
            "params": {
                "url": "https://gitlab.com/openbravo/product/pmods/org.openbravo.client.application.fr_FR",
                "ver": "master"
            },
            "javapackage": "org.openbravo.client.application.fr_FR"
        },
        {
            "method": "git",
            "params": {
                "url": "https://gitlab.com/openbravo/product/pmods/org.openbravo.client.kernel.fr_FR",
                "ver": "master"
            },
            "javapackage": "org.openbravo.client.kernel.fr_FR"
        },
        {
            "method": "git",
            "params": {
                "url": "https://gitlab.com/openbravo/product/pmods/org.openbravo.client.myob.fr_FR",
                "ver": "master"
            },
            "javapackage": "org.openbravo.client.myob.fr_FR"
        },
        {
            "method": "git",
            "params": {
                "url": "https://gitlab.com/openbravo/product/pmods/org.openbravo.client.querylist.fr_FR",
                "ver": "master"
            },
            "javapackage": "org.openbravo.client.querylist.fr_FR"
        },
        {
            "method": "git",
            "params": {
                "url": "https://gitlab.com/openbravo/product/pmods/org.openbravo.client.widgets.fr_FR",
                "ver": "master"
            },
            "javapackage": "org.openbravo.client.widgets.fr_FR"
        },
        {
            "method": "git",
            "params": {
                "url": "https://gitlab.com/openbravo/product/pmods/org.openbravo.advpaymentmngt.fr_FR",
                "ver": "master"
            },
            "javapackage": "org.openbravo.advpaymentmngt.fr_FR"
        },
        {
            "method": "git",
            "params": {
                "url": "https://gitlab.com/openbravo/product/pmods/org.openbravo.service.integration.openid.fr_FR",
                "ver": "master"
            },
            "javapackage": "org.openbravo.service.integration.openid.fr_FR"
        },
        {
            "method": "git",
            "params": {
                "url": "https://gitlab.com/openbravo/product/pmods/org.openbravo.service.integration.google.fr_FR",
                "ver": "master"
            },
            "javapackage": "org.openbravo.service.integration.google.fr_FR"
        },
        {
            "method": "git",
            "params": {
                "url": "https://gitlab.com/openbravo/product/pmods/org.openbravo.service.json.fr_FR",
                "ver": "master"
            },
            "javapackage": "org.openbravo.service.json.fr_FR"
        },
        {
            "method": "git",
            "params": {
                "url": "https://gitlab.com/openbravo/product/pmods/org.openbravo.service.datasource.fr_FR",
                "ver": "master"
            },
            "javapackage": "org.openbravo.service.datasource.fr_FR"
        },
        {
            "method": "git",
            "params": {
                "url": "https://gitlab.com/openbravo/product/pmods/org.openbravo.fr_FR",
                "ver": "master"
            },
            "javapackage": "org.openbravo.fr_FR"
        },
        {
            "method": "git",
            "params": {
                "url": "https://gitlab.com/openbravo/product/pmods/org.openbravo.financial.paymentreport.fr_FR",
                "ver": "master"
            },
            "javapackage": "org.openbravo.financial.paymentreport.fr_FR"
        },
        {
            "method": "git",
            "params": {
                "url": "https://gitlab.com/openbravo/product/pmods/org.openbravo.userinterface.smartclient.fr_FR",
                "ver": "master"
            },
            "javapackage": "org.openbravo.userinterface.smartclient.fr_FR"
        },
        {
            "method": "git",
            "params": {
                "url": "https://gitlab.com/openbravo/product/pmods/org.openbravo.userinterface.selector.fr_FR",
                "ver": "master"
            },
            "javapackage": "org.openbravo.userinterface.selector.fr_FR"
        },
        {
            "method": "git",
            "params": {
                "url": "https://gitlab.com/openbravo/product/pmods/org.openbravo.retail.pack.fr_FR",
                "ver": "master"
            },
            "javapackage": "org.openbravo.retail.pack.fr_FR"
        },
        {
            "method": "git",
            "params": {
                "url": "https://gitlab.com/openbravo/product/pmods/org.openbravo.mobile.core.fr_FR",
                "ver": "master"
            },
            "javapackage": "org.openbravo.mobile.core.fr_FR"
        },
        {
            "method": "git",
            "params": {
                "url": "https://gitlab.com/openbravo/product/pmods/org.openbravo.retail.posterminal.fr_FR",
                "ver": "master"
            },
            "javapackage": "org.openbravo.retail.posterminal.fr_FR"
        },
        {
            "method": "git",
            "params": {
                "url": "https://gitlab.com/openbravo/product/pmods/org.openbravo.retail.discounts.fr_FR",
                "ver": "master"
            },
            "javapackage": "org.openbravo.retail.discounts.fr_FR"
        },
        {
            "method": "git",
            "params": {
                "url": "https://gitlab.com/openbravo/product/pmods/org.openbravo.retail.config.fr_FR",
                "ver": "master"
            },
            "javapackage": "org.openbravo.retail.config.fr_FR"
        },
        {
            "method": "git",
            "params": {
                "url": "https://gitlab.com/openbravo/product/pmods/org.openbravo.retail.returns.fr_FR",
                "ver": "master"
            },
            "javapackage": "org.openbravo.retail.returns.fr_FR"
        },
        {
            "method": "git",
            "params": {
                "url": "https://gitlab.com/openbravo/product/pmods/org.openbravo.retail.sessions.fr_FR",
                "ver": "master"
            },
            "javapackage": "org.openbravo.retail.sessions.fr_FR"
        },
        {
            "method": "git",
            "params": {
                "url": "https://gitlab.com/openbravo/product/pmods/org.openbravo.retail.giftcards.fr_FR",
                "ver": "master"
            },
            "javapackage": "org.openbravo.retail.giftcards.fr_FR"
        },
        {
            "method": "git",
            "params": {
                "url": "https://gitlab.com/openbravo/product/mods/org.openbravo.distributionorder.fr_FR",
                "ver": "master"
            },
            "javapackage": "org.openbravo.distributionorder.fr_FR"
        },
        {
            "method": "git",
            "params": {
                "url": "https://gitlab.com/openbravo/product/pmods/org.openbravo.warehouse.advancedwarehouseoperations.pack.fr_FR",
                "ver": "master"
            },
            "javapackage": "org.openbravo.warehouse.advancedwarehouseoperations.pack.fr_FR"
        },
        {
            "method": "git",
            "params": {
                "url": "https://gitlab.com/openbravo/product/pmods/org.openbravo.warehouse.advancedwarehouseoperations.distributionorders.fr_FR",
                "ver": "master"
            },
            "javapackage": "org.openbravo.warehouse.advancedwarehouseoperations.distributionorders.fr_FR"
        },
        {
            "method": "git",
            "params": {
                "url": "https://gitlab.com/openbravo/product/pmods/org.openbravo.warehouse.advancedwarehouseoperations.fr_FR",
                "ver": "master"
            },
            "javapackage": "org.openbravo.warehouse.advancedwarehouseoperations.fr_FR"
        },
        {
            "method": "git",
            "params": {
                "url": "https://gitlab.com/openbravo/product/pmods/org.openbravo.warehouse.advancedwarehouseoperations.printing.bartender.fr_FR",
                "ver": "master"
            },
            "javapackage": "org.openbravo.warehouse.advancedwarehouseoperations.printing.bartender.fr_FR"
        },
        {
            "method": "git",
            "params": {
                "url": "https://gitlab.com/openbravo/product/pmods/org.openbravo.warehouse.advancedwarehouseoperations.retailconnector.fr_FR",
                "ver": "master"
            },
            "javapackage": "org.openbravo.warehouse.advancedwarehouseoperations.retailconnector.fr_FR"
        },
        {
            "method": "git",
            "params": {
                "url": "https://gitlab.com/openbravo/product/pmods/org.openbravo.warehouse.advancedwarehouseoperations.batchwavepicking.fr_FR",
                "ver": "master"
            },
            "javapackage": "org.openbravo.warehouse.advancedwarehouseoperations.batchwavepicking.fr_FR"
        },
        {
            "method": "git",
            "params": {
                "url": "https://gitlab.com/openbravo/product/pmods/org.openbravo.warehouse.advancedwarehouseoperations.operatorloadbalancing.fr_FR",
                "ver": "master"
            },
            "javapackage": "org.openbravo.warehouse.advancedwarehouseoperations.operatorloadbalancing.fr_FR"
        },
        {
            "method": "git",
            "params": {
                "url": "https://gitlab.com/openbravo/product/pmods/org.openbravo.v3.translation.pack.it_IT",
                "ver": "master"
            },
            "javapackage": "org.openbravo.v3.translation.pack.it_IT"
        },
        {
            "method": "git",
            "params": {
                "url": "https://gitlab.com/openbravo/product/pmods/org.openbravo.client.htmlwidget.it_IT",
                "ver": "master"
            },
            "javapackage": "org.openbravo.client.htmlwidget.it_IT"
        },
        {
            "method": "git",
            "params": {
                "url": "https://gitlab.com/openbravo/product/pmods/org.openbravo.reports.ordersawaitingdelivery.it_IT",
                "ver": "master"
            },
            "javapackage": "org.openbravo.reports.ordersawaitingdelivery.it_IT"
        },
        {
            "method": "git",
            "params": {
                "url": "https://gitlab.com/openbravo/product/pmods/org.openbravo.client.application.it_IT",
                "ver": "master"
            },
            "javapackage": "org.openbravo.client.application.it_IT"
        },
        {
            "method": "git",
            "params": {
                "url": "https://gitlab.com/openbravo/product/pmods/org.openbravo.client.kernel.it_IT",
                "ver": "master"
            },
            "javapackage": "org.openbravo.client.kernel.it_IT"
        },
        {
            "method": "git",
            "params": {
                "url": "https://gitlab.com/openbravo/product/pmods/org.openbravo.client.myob.it_IT",
                "ver": "master"
            },
            "javapackage": "org.openbravo.client.myob.it_IT"
        },
        {
            "method": "git",
            "params": {
                "url": "https://gitlab.com/openbravo/product/pmods/org.openbravo.client.querylist.it_IT",
                "ver": "master"
            },
            "javapackage": "org.openbravo.client.querylist.it_IT"
        },
        {
            "method": "git",
            "params": {
                "url": "https://gitlab.com/openbravo/product/pmods/org.openbravo.client.widgets.it_IT",
                "ver": "master"
            },
            "javapackage": "org.openbravo.client.widgets.it_IT"
        },
        {
            "method": "git",
            "params": {
                "url": "https://gitlab.com/openbravo/product/pmods/org.openbravo.advpaymentmngt.it_IT",
                "ver": "master"
            },
            "javapackage": "org.openbravo.advpaymentmngt.it_IT"
        },
        {
            "method": "git",
            "params": {
                "url": "https://gitlab.com/openbravo/product/pmods/org.openbravo.service.integration.openid.it_IT",
                "ver": "master"
            },
            "javapackage": "org.openbravo.service.integration.openid.it_IT"
        },
        {
            "method": "git",
            "params": {
                "url": "https://gitlab.com/openbravo/product/pmods/org.openbravo.service.integration.google.it_IT",
                "ver": "master"
            },
            "javapackage": "org.openbravo.service.integration.google.it_IT"
        },
        {
            "method": "git",
            "params": {
                "url": "https://gitlab.com/openbravo/product/pmods/org.openbravo.service.datasource.it_IT",
                "ver": "master"
            },
            "javapackage": "org.openbravo.service.datasource.it_IT"
        },
        {
            "method": "git",
            "params": {
                "url": "https://gitlab.com/openbravo/product/pmods/org.openbravo.it_IT",
                "ver": "master"
            },
            "javapackage": "org.openbravo.it_IT"
        },
        {
            "method": "git",
            "params": {
                "url": "https://gitlab.com/openbravo/product/pmods/org.openbravo.financial.paymentreport.it_IT",
                "ver": "master"
            },
            "javapackage": "org.openbravo.financial.paymentreport.it_IT"
        },
        {
            "method": "git",
            "params": {
                "url": "https://gitlab.com/openbravo/product/pmods/org.openbravo.userinterface.smartclient.it_IT",
                "ver": "master"
            },
            "javapackage": "org.openbravo.userinterface.smartclient.it_IT"
        },
        {
            "method": "git",
            "params": {
                "url": "https://gitlab.com/openbravo/product/pmods/org.openbravo.userinterface.selector.it_IT",
                "ver": "master"
            },
            "javapackage": "org.openbravo.userinterface.selector.it_IT"
        },
        {
            "method": "git",
            "params": {
                "url": "https://gitlab.com/openbravo/product/pmods/org.openbravo.retail.pack.it_IT",
                "ver": "master"
            },
            "javapackage": "org.openbravo.retail.pack.it_IT"
        },
        {
            "method": "git",
            "params": {
                "url": "https://gitlab.com/openbravo/product/pmods/org.openbravo.mobile.core.it_IT",
                "ver": "master"
            },
            "javapackage": "org.openbravo.mobile.core.it_IT"
        },
        {
            "method": "git",
            "params": {
                "url": "https://gitlab.com/openbravo/product/pmods/org.openbravo.retail.posterminal.it_IT",
                "ver": "master"
            },
            "javapackage": "org.openbravo.retail.posterminal.it_IT"
        },
        {
            "method": "git",
            "params": {
                "url": "https://gitlab.com/openbravo/product/pmods/org.openbravo.retail.discounts.it_IT",
                "ver": "master"
            },
            "javapackage": "org.openbravo.retail.discounts.it_IT"
        },
        {
            "method": "git",
            "params": {
                "url": "https://gitlab.com/openbravo/product/pmods/org.openbravo.retail.config.it_IT",
                "ver": "master"
            },
            "javapackage": "org.openbravo.retail.config.it_IT"
        },
        {
            "method": "git",
            "params": {
                "url": "https://gitlab.com/openbravo/product/pmods/org.openbravo.retail.returns.it_IT",
                "ver": "master"
            },
            "javapackage": "org.openbravo.retail.returns.it_IT"
        },
        {
            "method": "git",
            "params": {
                "url": "https://gitlab.com/openbravo/product/pmods/org.openbravo.retail.sessions.it_IT",
                "ver": "master"
            },
            "javapackage": "org.openbravo.retail.sessions.it_IT"
        },
        {
            "method": "git",
            "params": {
                "url": "https://gitlab.com/openbravo/product/pmods/org.openbravo.retail.pack.pt_PT",
                "ver": "master"
            },
            "javapackage": "org.openbravo.retail.pack.pt_PT"
        },
        {
            "method": "git",
            "params": {
                "url": "https://gitlab.com/openbravo/product/pmods/org.openbravo.mobile.core.pt_PT",
                "ver": "master"
            },
            "javapackage": "org.openbravo.mobile.core.pt_PT"
        },
        {
            "method": "git",
            "params": {
                "url": "https://gitlab.com/openbravo/product/pmods/org.openbravo.retail.posterminal.pt_PT",
                "ver": "master"
            },
            "javapackage": "org.openbravo.retail.posterminal.pt_PT"
        },
        {
            "method": "git",
            "params": {
                "url": "https://gitlab.com/openbravo/product/pmods/org.openbravo.retail.discounts.pt_PT",
                "ver": "master"
            },
            "javapackage": "org.openbravo.retail.discounts.pt_PT"
        },
        {
            "method": "git",
            "params": {
                "url": "https://gitlab.com/openbravo/product/pmods/org.openbravo.retail.config.pt_PT",
                "ver": "master"
            },
            "javapackage": "org.openbravo.retail.config.pt_PT"
        },
        {
            "method": "git",
            "params": {
                "url": "https://gitlab.com/openbravo/product/pmods/org.openbravo.retail.returns.pt_PT",
                "ver": "master"
            },
            "javapackage": "org.openbravo.retail.returns.pt_PT"
        },
        {
            "method": "git",
            "params": {
                "url": "https://gitlab.com/openbravo/product/pmods/org.openbravo.retail.giftcards.pt_PT",
                "ver": "master"
            },
            "javapackage": "org.openbravo.retail.giftcards.pt_PT"
        }
    ],
    "deps": [
        {
            "method": "git",
            "params": {
                "url": "https://gitlab.com/openbravo/product/pmods/org.openbravo.retail.selfcheckout",
                "ver": "master"
            },
            "javapackage": "org.openbravo.retail.selfcheckout"
        },
        {
            "method": "git",
            "params": {
                "url": "https://gitlab.com/openbravo/product/pmods/org.openbravo.retail.loyalty.programs",
                "ver": "master"
            },
            "javapackage": "org.openbravo.retail.loyalty.programs"
        },
        {
            "method": "git",
            "params": {
                "url": "https://gitlab.com/openbravo/product/pmods/org.openbravo.mobile.core",
                "ver": "master"
            },
            "javapackage": "org.openbravo.mobile.core"
        },
        {
            "method": "git",
            "params": {
                "url": "https://gitlab.com/openbravo/product/pmods/org.openbravo.retail.posterminal",
                "ver": "master"
            },
            "javapackage": "org.openbravo.retail.posterminal"
        },
        {
            "method": "git",
            "params": {
                "url": "https://gitlab.com/openbravo/product/pmods/org.openbravo.retail.discounts",
                "ver": "master"
            },
            "javapackage": "org.openbravo.retail.discounts"
        },
        {
            "method": "git",
            "params": {
                "url": "https://gitlab.com/openbravo/product/pmods/org.openbravo.retail.orderpreparation",
                "ver": "master"
            },
            "javapackage": "org.openbravo.retail.orderpreparation"
        },
        {
            "method": "git",
            "params": {
                "url": "https://gitlab.com/openbravo/product/pmods/org.openbravo.retail.returns",
                "ver": "master"
            },
            "javapackage": "org.openbravo.retail.returns"
        },
        {
            "method": "git",
            "params": {
                "url": "https://gitlab.com/openbravo/product/pmods/org.openbravo.retail.sessions",
                "ver": "master"
            },
            "javapackage": "org.openbravo.retail.sessions"
        },
        {
            "method": "git",
            "params": {
                "url": "https://gitlab.com/openbravo/product/pmods/org.openbravo.retail.config",
                "ver": "master"
            },
            "javapackage": "org.openbravo.retail.config"
        },
        {
            "method": "git",
            "params": {
                "url": "https://gitlab.com/openbravo/product/pmods/org.openbravo.retail.discounts.combo",
                "ver": "master"
            },
            "javapackage": "org.openbravo.retail.discounts.combo"
        },
        {
            "method": "git",
            "params": {
                "url": "https://gitlab.com/openbravo/product/pmods/org.openbravo.retail.fastbrowse",
                "ver": "master"
            },
            "javapackage": "org.openbravo.retail.fastbrowse"
        },
        {
            "method": "git",
            "params": {
                "url": "https://gitlab.com/openbravo/product/pmods/org.openbravo.retail.giftcards",
                "ver": "master"
            },
            "javapackage": "org.openbravo.retail.giftcards"
        },
        {
            "method": "git",
            "params": {
                "url": "https://gitlab.com/openbravo/product/pmods/org.openbravo.warehouse.advancedwarehouseoperations.pack",
                "ver": "master"
            },
            "javapackage": "org.openbravo.warehouse.advancedwarehouseoperations.pack"
        },
        {
            "method": "git",
            "params": {
                "url": "https://gitlab.com/openbravo/product/pmods/org.openbravo.warehouse.advancedwarehouseoperations.template",
                "ver": "master"
            },
            "javapackage": "org.openbravo.warehouse.advancedwarehouseoperations.template"
        },
        {
            "method": "git",
            "params": {
                "url": "https://gitlab.com/openbravo/ci/modules/org.openbravo.warehouse.advancedwarehouseoperations.sampledata",
                "ver": "master"
            },
            "javapackage": "org.openbravo.warehouse.advancedwarehouseoperations.sampledata"
        },
        {
            "method": "git",
            "params": {
                "url": "https://gitlab.com/openbravo/product/pmods/org.openbravo.warehouse.advancedwarehouseoperations.printing.bartender",
                "ver": "master"
            },
            "javapackage": "org.openbravo.warehouse.advancedwarehouseoperations.printing.bartender"
        },
        {
            "method": "git",
            "params": {
                "url": "https://gitlab.com/openbravo/product/pmods/org.openbravo.warehouse.advancedwarehouseoperations.distributionorders",
                "ver": "master"
            },
            "javapackage": "org.openbravo.warehouse.advancedwarehouseoperations.distributionorders"
        },
        {
            "method": "git",
            "params": {
                "url": "https://gitlab.com/openbravo/product/pmods/org.openbravo.warehouse.advancedwarehouseoperations",
                "ver": "master"
            },
            "javapackage": "org.openbravo.warehouse.advancedwarehouseoperations"
        },
        {
            "method": "git",
            "params": {
                "url": "https://gitlab.com/openbravo/product/pmods/org.openbravo.warehouse.advancedwarehouseoperations.retailconnector",
                "ver": "master"
            },
            "javapackage": "org.openbravo.warehouse.advancedwarehouseoperations.retailconnector"
        },
        {
            "method": "git",
            "params": {
                "url": "https://gitlab.com/openbravo/product/pmods/org.openbravo.warehouse.advancedwarehouseoperations.batchwavepicking",
                "ver": "master"
            },
            "javapackage": "org.openbravo.warehouse.advancedwarehouseoperations.batchwavepicking"
        },
        {
            "method": "git",
            "params": {
                "url": "https://gitlab.com/openbravo/product/pmods/org.openbravo.warehouse.advancedwarehouseoperations.batchwaveretailconnector",
                "ver": "master"
            },
            "javapackage": "org.openbravo.warehouse.advancedwarehouseoperations.batchwaveretailconnector"
        },
        {
            "method": "git",
            "params": {
                "url": "https://gitlab.com/openbravo/product/pmods/org.openbravo.warehouse.advancedwarehouseoperations.operatorloadbalancing",
                "ver": "master"
            },
            "javapackage": "org.openbravo.warehouse.advancedwarehouseoperations.operatorloadbalancing"
        },
        {
            "method": "git",
            "params": {
                "url": "https://gitlab.com/openbravo/product/pmods/org.openbravo.warehouse.advancedwarehouseoperations.selfreplenishment",
                "ver": "master"
            },
            "javapackage": "org.openbravo.warehouse.advancedwarehouseoperations.selfreplenishment"
        },
        {
            "method": "git",
            "params": {
                "url": "https://gitlab.com/openbravo/product/pmods/org.openbravo.retail.sampledata",
                "ver": "master"
            },
            "javapackage": "org.openbravo.retail.sampledata"
        },
        {
            "method": "git",
            "params": {
                "url": "https://gitlab.com/openbravo/product/pmods/org.openbravo.retail.poshwmanager",
                "ver": "master"
            },
            "javapackage": "org.openbravo.retail.poshwmanager"
        },
        {
            "method": "git",
            "params": {
                "url": "https://gitlab.com/openbravo/product/pmods/org.openbravo.retail.pack",
                "ver": "master"
            },
            "javapackage": "org.openbravo.retail.pack"
        },
        {
            "method": "git",
            "params": {
                "url": "https://gitlab.com/openbravo/product/pmods/org.openbravo.loyalty.programs",
                "ver": "master"
            },
            "javapackage": "org.openbravo.loyalty.programs"
        },
        {
            "method": "git",
            "params": {
                "url": "https://gitlab.com/openbravo/product/mods/org.openbravo.module.languagelocalname",
                "ver": "master"
            },
            "javapackage": "org.openbravo.module.languagelocalname"
        },
        {
            "method": "git",
            "params": {
                "url": "https://gitlab.com/openbravo/product/mods/org.openbravo.distributionorder",
                "ver": "master"
            },
            "javapackage": "org.openbravo.distributionorder"
        },
        {
            "method": "git",
            "params": {
                "url": "https://gitlab.com/openbravo/product/mods/org.openbravo.utility.opencsv",
                "ver": "master"
            },
            "javapackage": "org.openbravo.utility.opencsv"
        }
    ],
    "scripts": {
        "checks-without-tomcat": [
            {
                "file": "localization/translations_junit.sh",
                "params": [
                    "$WORKSPACE"
                ]
            }
        ]
    }
}
