{
    "automation": [
        {
            "javapackage": "mobile-test",
            "method": "git",
            "params": {
                "url": "https://gitlab.com/openbravo/ci/mobile-test",
                "ver": "release/21Q2"
            }
        }
    ],
    "desc": "Config for retail team",
    "erp": {
        "method": "git",
        "params": {
            "url": "https://gitlab.com/openbravo/product/openbravo",
            "ver": "release/21Q2"
        }
    },
    "mods": [
        {
            "method": "git",
            "params": {
                "url": "https://gitlab.com/openbravo/product/pmods/org.openbravo.certification.france",
                "ver": "release/20Q4"
            },
            "javapackage": "org.openbravo.certification.france"
        },
        {
            "method": "git",
            "params": {
                "url": "https://gitlab.com/openbravo/product/pmods/org.openbravo.certification.france.fr_FR",
                "ver": "master"
            },
            "javapackage": "org.openbravo.certification.france.fr_FR"
        },
        {
            "method": "git",
            "params": {
                "url": "https://gitlab.com/openbravo/ci/modules/org.openbravo.certification.france.testing",
                "ver": "release/20Q4"
            },
            "javapackage": "org.openbravo.certification.france.testing"
        },
        {
            "method": "git",
            "params": {
                "url": "https://gitlab.com/openbravo/ci/modules/org.openbravo.certification.france.sampledata",
                "ver": "master"
            },
            "javapackage": "org.openbravo.certification.france.sampledata"
        }
    ],
    "deps": [
        {
            "method": "git",
            "params": {
                "url": "https://gitlab.com/openbravo/product/pmods/org.openbravo.retail.discounts.bypaymentmethod",
                "ver": "9655f3bf5a7f7463ad66157105dc185aacd506e0"
            },
            "javapackage": "org.openbravo.retail.discounts.bypaymentmethod"
        },
        {
            "method": "git",
            "params": {
                "url": "https://gitlab.com/openbravo/product/pmods/org.openbravo.retail.discounts.bytotal",
                "ver": "01515f5c6caeed81aae78e1e70c68be7f870bb4c"
            },
            "javapackage": "org.openbravo.retail.discounts.bytotal"
        },
        {
            "method": "git",
            "params": {
                "url": "https://gitlab.com/openbravo/product/pmods/org.openbravo.multiupc",
                "ver": "3b684bd84405cd1a82d89c3ba1514e5111ab188c"
            },
            "javapackage": "org.openbravo.multiupc"
        },
        {
            "method": "git",
            "params": {
                "url": "https://gitlab.com/openbravo/product/pmods/org.openbravo.retail.discounts.coupons",
                "ver": "5df1ee4971e83ae5148ce67ae38ccfe39a6ed73a"
            },
            "javapackage": "org.openbravo.retail.discounts.coupons"
        },
        {
            "method": "git",
            "params": {
                "url": "https://gitlab.com/openbravo/product/pmods/org.openbravo.retail.discounts.coupons.otf",
                "ver": "9dd505afed4da459b8773d9f2047f48da178bf41"
            },
            "javapackage": "org.openbravo.retail.discounts.coupons.otf"
        },
        {
            "method": "git",
            "params": {
                "url": "https://gitlab.com/openbravo/product/pmods/org.openbravo.retail.pricecriteria",
                "ver": "f9d0a827e13d4f0c353a7f655dffcb778513e23c"
            },
            "javapackage": "org.openbravo.retail.pricecriteria"
        },
        {
            "method": "git",
            "params": {
                "url": "https://gitlab.com/openbravo/product/pmods/org.openbravo.retail.discounts.category",
                "ver": "f0ce28a3334b8c179d06711daeac5774f292ef70"
            },
            "javapackage": "org.openbravo.retail.discounts.category"
        },
        {
            "method": "git",
            "params": {
                "url": "https://gitlab.com/openbravo/product/pmods/org.openbravo.retail.discount.twofamiliescombo",
                "ver": "6ae8d20d41a94a92c965b5ce230be0187efac69c"
            },
            "javapackage": "org.openbravo.retail.discount.twofamiliescombo"
        },
        {
            "method": "git",
            "params": {
                "url": "https://gitlab.com/openbravo/product/pmods/org.openbravo.retail.copystore",
                "ver": "acaffabfec01d87b3544553aa1ec9461235c624b"
            },
            "javapackage": "org.openbravo.retail.copystore"
        },
        {
            "method": "git",
            "params": {
                "url": "https://gitlab.com/openbravo/product/pmods/org.openbravo.retail.complementary",
                "ver": "88ed66e3a33c1da0f06ada8f3cd5e19463cff6eb"
            },
            "javapackage": "org.openbravo.retail.complementary"
        },
        {
            "method": "git",
            "params": {
                "url": "https://gitlab.com/openbravo/product/pmods/org.openbravo.retail.multiupc",
                "ver": "e8e5ba1b2766c7e7c52a5484c4b940e94f90a661"
            },
            "javapackage": "org.openbravo.retail.multiupc"
        },
        {
            "method": "git",
            "params": {
                "url": "https://gitlab.com/openbravo/product/pmods/org.openbravo.retail.discounts.combo",
                "ver": "d6ebd34b33a1b70e32fc0a94a0b40402af549d88"
            },
            "javapackage": "org.openbravo.retail.discounts.combo"
        },
        {
            "method": "git",
            "params": {
                "url": "https://gitlab.com/openbravo/product/pmods/org.openbravo.retail.taxexempt",
                "ver": "76406dac7d61fac06651279fed674d1b2809cb76"
            },
            "javapackage": "org.openbravo.retail.taxexempt"
        },
        {
            "method": "git",
            "params": {
                "url": "https://gitlab.com/openbravo/product/pmods/org.openbravo.retail.stockvalidation",
                "ver": "5f57123c8a172d546fe21da35f6a1d4cd7ac1262"
            },
            "javapackage": "org.openbravo.retail.stockvalidation"
        },
        {
            "method": "git",
            "params": {
                "url": "https://gitlab.com/openbravo/product/pmods/org.openbravo.retail.giftcards",
                "ver": "133e2069836f28a693d091cf7bb78be5a853d27a"
            },
            "javapackage": "org.openbravo.retail.giftcards"
        },
        {
            "method": "git",
            "params": {
                "url": "https://gitlab.com/openbravo/product/pmods/org.openbravo.retail.stockcriteria",
                "ver": "95acc7af265c5830f9e73a80a2a3051101a0289c"
            },
            "javapackage": "org.openbravo.retail.stockcriteria"
        },
        {
            "method": "git",
            "params": {
                "url": "https://gitlab.com/openbravo/product/pmods/org.openbravo.retail.levelpricing",
                "ver": "09a37583fd3fe2472a43220c0b1bc00575942798"
            },
            "javapackage": "org.openbravo.retail.levelpricing"
        },
        {
            "method": "git",
            "params": {
                "url": "https://gitlab.com/openbravo/product/pmods/org.openbravo.retail.activediscountspopup",
                "ver": "2afb50a300ae54d05e6656d4d2a3ae7cb501e2e0"
            },
            "javapackage": "org.openbravo.retail.activediscountspopup"
        },
        {
            "method": "git",
            "params": {
                "url": "https://gitlab.com/openbravo/product/pmods/org.openbravo.retail.copybestsellers",
                "ver": "9089976280d3e3f9816d658b67d034acebe5eb77"
            },
            "javapackage": "org.openbravo.retail.copybestsellers"
        },
        {
            "method": "git",
            "params": {
                "url": "https://gitlab.com/openbravo/product/pmods/org.openbravo.retail.discounts.scaledprice",
                "ver": "c7f01e5c73b6bc11f825ce70c12dd10d1bd0ddf4"
            },
            "javapackage": "org.openbravo.retail.discounts.scaledprice"
        },
        {
            "method": "git",
            "params": {
                "url": "https://gitlab.com/openbravo/product/pmods/org.openbravo.retail.bestsellers",
                "ver": "432fcaf86b9dd1f82b4a28161cfc0afced982a2c"
            },
            "javapackage": "org.openbravo.retail.bestsellers"
        },
        {
            "method": "git",
            "params": {
                "url": "https://gitlab.com/openbravo/product/pmods/org.openbravo.pricing.levelpricing",
                "ver": "9ae83b3f310e416ccb34d334698845fca277a52d"
            },
            "javapackage": "org.openbravo.pricing.levelpricing"
        },
        {
            "method": "git",
            "params": {
                "url": "https://gitlab.com/openbravo/product/pmods/org.openbravo.retail.showprodsk",
                "ver": "9769ed8b11d83b64c1c3033aca40ab803a3d060e"
            },
            "javapackage": "org.openbravo.retail.showprodsk"
        },
        {
            "method": "git",
            "params": {
                "url": "https://gitlab.com/openbravo/product/pmods/org.openbravo.retail.trainingmode",
                "ver": "7c8c30fc6b03009648811af93d3af9ce50280ac8"
            },
            "javapackage": "org.openbravo.retail.trainingmode"
        },
        {
            "method": "git",
            "params": {
                "url": "https://gitlab.com/openbravo/product/pmods/org.openbravo.retail.printlast",
                "ver": "5a783c109ac5a2223a22fc883160ab3400de3444"
            },
            "javapackage": "org.openbravo.retail.printlast"
        },
        {
            "method": "git",
            "params": {
                "url": "https://gitlab.com/openbravo/product/pmods/org.openbravo.retail.sessions",
                "ver": "9223477994dca90af46ef48dcf85a0acf04ebb6c"
            },
            "javapackage": "org.openbravo.retail.sessions"
        },
        {
            "method": "git",
            "params": {
                "url": "https://gitlab.com/openbravo/product/pmods/org.openbravo.retail.marginindicator",
                "ver": "da0515be816a38ffa90b31ed4fb497f84370d26f"
            },
            "javapackage": "org.openbravo.retail.marginindicator"
        },
        {
            "method": "git",
            "params": {
                "url": "https://gitlab.com/openbravo/product/pmods/org.openbravo.retail.productonthefly",
                "ver": "c17fb84201bf46d467dcc4d7eab82c00e20cc5ee"
            },
            "javapackage": "org.openbravo.retail.productonthefly"
        },
        {
            "method": "git",
            "params": {
                "url": "https://gitlab.com/openbravo/product/pmods/org.openbravo.retail.scanreceipt",
                "ver": "35cd5df471cd16d7f7d3535d7b9ab5b62d7c978f"
            },
            "javapackage": "org.openbravo.retail.scanreceipt"
        },
        {
            "method": "git",
            "params": {
                "url": "https://gitlab.com/openbravo/product/pmods/org.openbravo.retail.digitalcoupons",
                "ver": "a22876d2820a65d65cd7148f7e13da9be1aa6011"
            },
            "javapackage": "org.openbravo.retail.digitalcoupons"
        },
        {
            "method": "git",
            "params": {
                "url": "https://gitlab.com/openbravo/product/pmods/org.openbravo.retail.chequecadeau",
                "ver": "c501f123b46f077e83f4196504c37dc35e559fe5"
            },
            "javapackage": "org.openbravo.retail.chequecadeau"
        },
        {
            "method": "git",
            "params": {
                "url": "https://gitlab.com/openbravo/product/pmods/org.openbravo.retail.selfcheckout",
                "ver": "525725a6d59fc5ce7f2f375c0cbe5fdbd1b9a419"
            },
            "javapackage": "org.openbravo.retail.selfcheckout"
        },
        {
            "method": "git",
            "params": {
                "url": "https://gitlab.com/openbravo/product/pmods/org.openbravo.retail.fastbrowse",
                "ver": "90ae29750f8f59445c412b8d7a35eebb1fd13c40"
            },
            "javapackage": "org.openbravo.retail.fastbrowse"
        },
        {
            "method": "git",
            "params": {
                "url": "https://gitlab.com/openbravo/product/pmods/org.openbravo.retail.verystar",
                "ver": "d96e0d4dd06cc30511d839a2c9c5602f2736903d"
            },
            "javapackage": "org.openbravo.retail.verystar"
        },
        {
            "method": "git",
            "params": {
                "url": "https://gitlab.com/openbravo/product/pmods/org.openbravo.retail.selfcheckout.verystar",
                "ver": "f0c2452f24b9c601db857b076e68df17bddfecc6"
            },
            "javapackage": "org.openbravo.retail.selfcheckout.verystar"
        },
        {
            "method": "git",
            "params": {
                "url": "https://gitlab.com/openbravo/product/pmods/org.openbravo.pricing.scalablelevelpricing",
                "ver": "98b97e39fb58cde8cd26f0b7b3661d41ad721a1a"
            },
            "javapackage": "org.openbravo.pricing.scalablelevelpricing"
        },
        {
            "method": "git",
            "params": {
                "url": "https://gitlab.com/openbravo/product/pmods/org.openbravo.retail.contactinfoforproduct",
                "ver": "934427d76a0770e2caf66ffeea4ef985c3e23795"
            },
            "javapackage": "org.openbravo.retail.contactinfoforproduct"
        },
        {
            "method": "git",
            "params": {
                "url": "https://gitlab.com/openbravo/product/pmods/org.openbravo.retail.multitaxcategory",
                "ver": "8c82186abd07e1a4890f57be871efb8a62c225d7"
            },
            "javapackage": "org.openbravo.retail.multitaxcategory"
        },
        {
            "method": "git",
            "params": {
                "url": "https://gitlab.com/openbravo/product/pmods/org.openbravo.retail.sumupprovider",
                "ver": "981730caefff8e8951816615279be7da40fb8663"
            },
            "javapackage": "org.openbravo.retail.sumupprovider"
        },
        {
            "method": "git",
            "params": {
                "url": "https://gitlab.com/openbravo/product/pmods/org.openbravo.retail.chasepaymentech",
                "ver": "f41b696ed6986f52662076741d2a6ef4d3078dc1"
            },
            "javapackage": "org.openbravo.retail.chasepaymentech"
        },
        {
            "method": "git",
            "params": {
                "url": "https://gitlab.com/openbravo/product/pmods/org.openbravo.retail.selfcheckout.chasepaymentech",
                "ver": "fe111245c1b962eac959f5732c6cfb2b2c041f90"
            },
            "javapackage": "org.openbravo.retail.selfcheckout.chasepaymentech"
        },
        {
            "method": "git",
            "params": {
                "url": "https://gitlab.com/openbravo/product/pmods/org.openbravo.retail.emailphoneicons",
                "ver": "d0902b3eedbe61d69d1efbebcd516e5e82b57e77"
            },
            "javapackage": "org.openbravo.retail.emailphoneicons"
        },
        {
            "method": "git",
            "params": {
                "url": "https://gitlab.com/openbravo/product/pmods/org.openbravo.retail.autobom",
                "ver": "8262db04bc129fe404bac88949847d45f90ed96c"
            },
            "javapackage": "org.openbravo.retail.autobom"
        },
        {
            "method": "git",
            "params": {
                "url": "https://gitlab.com/openbravo/product/pmods/org.openbravo.retail.forgotpassword",
                "ver": "54f1d92e691486cf6ad3b26ba1bbd7d34b1995a7"
            },
            "javapackage": "org.openbravo.retail.forgotpassword"
        },
        {
            "method": "git",
            "params": {
                "url": "https://gitlab.com/openbravo/product/pmods/org.openbravo.service.integration.magento.core",
                "ver": "178644cc12b8e191dfbd3bc327655ffb116446dc"
            },
            "javapackage": "org.openbravo.service.integration.magento.core"
        },
        {
            "method": "git",
            "params": {
                "url": "https://gitlab.com/openbravo/product/pmods/org.openbravo.service.integration.magento.mappings",
                "ver": "5606d7713c9de2484efdd0855e5f9636a342a345"
            },
            "javapackage": "org.openbravo.service.integration.magento.mappings"
        },
        {
            "method": "git",
            "params": {
                "url": "https://gitlab.com/openbravo/product/pmods/org.openbravo.retail.services.autoprice",
                "ver": "02a9562845c5b26bbf0ed3afc0fea6a7cfb822cc"
            },
            "javapackage": "org.openbravo.retail.services.autoprice"
        },
        {
            "method": "git",
            "params": {
                "url": "https://gitlab.com/openbravo/product/pmods/org.openbravo.loyalty.programs",
                "ver": "94d500673b718fb055388b7e997e69eff96ea5ac"
            },
            "javapackage": "org.openbravo.loyalty.programs"
        },
        {
            "method": "git",
            "params": {
                "url": "https://gitlab.com/openbravo/product/pmods/org.openbravo.retail.loyalty.programs",
                "ver": "63f8981b5ff855ea8a2641f7a1d9685b1c34746c"
            },
            "javapackage": "org.openbravo.retail.loyalty.programs"
        },
        {
            "method": "git",
            "params": {
                "url": "https://gitlab.com/openbravo/product/pmods/org.openbravo.loyalty.burn.coupon",
                "ver": "12847896d04389a1aced387ae586b200a023326b"
            },
            "javapackage": "org.openbravo.loyalty.burn.coupon"
        },
        {
            "method": "git",
            "params": {
                "url": "https://gitlab.com/openbravo/product/pmods/org.openbravo.retail.loyalty.burn.coupon",
                "ver": "67dd9c0555ce20e649a44cce5312b9753518914d"
            },
            "javapackage": "org.openbravo.retail.loyalty.burn.coupon"
        },
        {
            "method": "git",
            "params": {
                "url": "https://gitlab.com/openbravo/product/pmods/org.openbravo.loyalty.burn.expired",
                "ver": "d44d0c8082e25f88a973ef03c7323544008be576"
            },
            "javapackage": "org.openbravo.loyalty.burn.expired"
        },
        {
            "method": "git",
            "params": {
                "url": "https://gitlab.com/openbravo/product/pmods/org.openbravo.loyalty.burn.giftcertificate",
                "ver": "757019dae831e0db678aeb2679b8c690541eb6ff"
            },
            "javapackage": "org.openbravo.loyalty.burn.giftcertificate"
        },
        {
            "method": "git",
            "params": {
                "url": "https://gitlab.com/openbravo/product/pmods/org.openbravo.retail.loyalty.burn.giftcertificate",
                "ver": "076b56a76acc9f49cb0fca0fdb18a1655604a97f"
            },
            "javapackage": "org.openbravo.retail.loyalty.burn.giftcertificate"
        },
        {
            "method": "git",
            "params": {
                "url": "https://gitlab.com/openbravo/product/pmods/org.openbravo.loyalty.earn.buyxearny",
                "ver": "ed94afec1176b98d746279bbb8c51063ad1516b9"
            },
            "javapackage": "org.openbravo.loyalty.earn.buyxearny"
        },
        {
            "method": "git",
            "params": {
                "url": "https://gitlab.com/openbravo/ci/modules/org.openbravo.retail.discounts.tests",
                "ver": "5c183e85c25d59ca28b1ac63120880e4a1d12034"
            },
            "javapackage": "org.openbravo.retail.discounts.tests"
        },
        {
            "method": "git",
            "params": {
                "url": "https://gitlab.com/openbravo/product/pmods/org.openbravo.retail.oms.orderconfirmation",
                "ver": "62fd77d3190b322ac5e7703b035e4c68506164ab"
            },
            "javapackage": "org.openbravo.retail.oms.orderconfirmation"
        },
        {
            "method": "git",
            "params": {
                "url": "https://gitlab.com/openbravo/product/pmods/org.openbravo.oms.retail",
                "ver": "91e0e63039af030fbe7c9cb4415c3611c063451e"
            },
            "javapackage": "org.openbravo.oms.retail"
        },
        {
            "method": "git",
            "params": {
                "url": "https://gitlab.com/openbravo/product/pmods/org.openbravo.retail.api",
                "ver": "d87b4a831f10f655571a2c82b2f9a3543c8b7c17"
            },
            "javapackage": "org.openbravo.retail.api"
        },
        {
            "method": "git",
            "params": {
                "url": "https://gitlab.com/openbravo/product/mods/org.openbravo.retail.france.ecotax",
                "ver": "f69e8f0a59cd7ea7c93baf89508ecd591a60c9e0"
            },
            "javapackage": "org.openbravo.retail.france.ecotax"
        },
        {
            "method": "git",
            "params": {
                "url": "https://gitlab.com/openbravo/product/pmods/org.openbravo.retail.adyenprovider",
                "ver": "1c413f2f5d39a965f29e9b7327af1e6a00d05f8b"
            },
            "javapackage": "org.openbravo.retail.adyenprovider"
        },
        {
            "method": "git",
            "params": {
                "url": "https://gitlab.com/openbravo/product/pmods/org.openbravo.retail.ingenicotsiprovider",
                "ver": "49dd4895b1c04dd3779c2c058cc36bd304369866"
            },
            "javapackage": "org.openbravo.retail.ingenicotsiprovider"
        },
        {
            "method": "git",
            "params": {
                "url": "https://gitlab.com/openbravo/product/pmods/org.openbravo.retail.rtprinter",
                "ver": "d282902c3a3d46a44ce574632c2ecd1474126686"
            },
            "javapackage": "org.openbravo.retail.rtprinter"
        },
        {
            "method": "git",
            "params": {
                "url": "https://gitlab.com/openbravo/product/pmods/org.openbravo.retail.asyncpayprovider",
                "ver": "2fba83bcb79f4a192287da8991c42d1ab7f6f00f"
            },
            "javapackage": "org.openbravo.retail.asyncpayprovider"
        },
        {
            "method": "git",
            "params": {
                "url": "https://gitlab.com/openbravo/product/pmods/org.openbravo.retail.selfcheckout.asyncpayprovider",
                "ver": "03ea0eb8f002156c77193c8c8af51413638c219f"
            },
            "javapackage": "org.openbravo.retail.selfcheckout.asyncpayprovider"
        },
        {
            "method": "git",
            "params": {
                "url": "https://gitlab.com/openbravo/product/pmods/org.openbravo.retail.axisc3",
                "ver": "27b4dd315924a45c3d04a3c01dd31b281f35fc6f"
            },
            "javapackage": "org.openbravo.retail.axisc3"
        },
        {
            "method": "git",
            "params": {
                "url": "https://gitlab.com/openbravo/product/pmods/org.openbravo.retail.nexoprovider",
                "ver": "de8ec7550131a05e5d2a928c361bb03d459041be"
            },
            "javapackage": "org.openbravo.retail.nexoprovider"
        },
        {
            "method": "git",
            "params": {
                "url": "https://gitlab.com/openbravo/product/pmods/org.openbravo.retail.selfcheckout.nexoprovider",
                "ver": "e20e506fbd5c7a2539fe8a5f0d0cf18db20027f0"
            },
            "javapackage": "org.openbravo.retail.selfcheckout.nexoprovider"
        },
        {
            "method": "git",
            "params": {
                "url": "https://gitlab.com/openbravo/product/pmods/org.openbravo.retail.rtserver",
                "ver": "3ba802307d67c5efcd8f28bb8cc827f77b87a009"
            },
            "javapackage": "org.openbravo.retail.rtserver"
        },
        {
            "method": "git",
            "params": {
                "url": "https://gitlab.com/openbravo/product/pmods/org.openbravo.retail.lotterycode",
                "ver": "35b6d71ca7480ac73faacff3deb33cacae32966d"
            },
            "javapackage": "org.openbravo.retail.lotterycode"
        },
        {
            "method": "git",
            "params": {
                "url": "https://gitlab.com/openbravo/product/pmods/org.openbravo.retail.selfcheckout.lotterycode",
                "ver": "8a282f9f6bfb7b20069a1c06272ece16f3c004e7"
            },
            "javapackage": "org.openbravo.retail.selfcheckout.lotterycode"
        },
        {
            "method": "git",
            "params": {
                "url": "https://gitlab.com/openbravo/product/pmods/org.openbravo.retail.selfcheckout.rtserver",
                "ver": "6db68df2b24580b281e0e2e64acd0069f28f6851"
            },
            "javapackage": "org.openbravo.retail.selfcheckout.rtserver"
        },
        {
            "method": "git",
            "params": {
                "url": "https://gitlab.com/openbravo/product/pmods/org.openbravo.retail.discounts.discountmatrixmanagement",
                "ver": "9889cd05a6e9bc5bad8c94a6edf3dc6e9ea601ca"
            },
            "javapackage": "org.openbravo.retail.discounts.discountmatrixmanagement"
        },
        {
            "method": "git",
            "params": {
                "url": "https://gitlab.com/openbravo/product/pmods/org.openbravo.retail.simpinvoicethreshold",
                "ver": "63188939754e376596adb9e310882574fefe21c6"
            },
            "javapackage": "org.openbravo.retail.simpinvoicethreshold"
        },
        {
            "method": "git",
            "params": {
                "url": "https://gitlab.com/openbravo/product/pmods/org.openbravo.retail.simpinvoicethreshold.pt_PT",
                "ver": "26aceb9dbb5628c2008d6e92ca14f457e2b8f663"
            },
            "javapackage": "org.openbravo.retail.simpinvoicethreshold.pt_PT"
        },
        {
            "method": "git",
            "params": {
                "url": "https://gitlab.com/openbravo/product/pmods/org.openbravo.retail.pack",
                "ver": "release/21Q2"
            },
            "javapackage": "org.openbravo.retail.pack"
        },
        {
            "method": "git",
            "params": {
                "url": "https://gitlab.com/openbravo/product/pmods/org.openbravo.retail.returns",
                "ver": "release/21Q2"
            },
            "javapackage": "org.openbravo.retail.returns"
        },
        {
            "method": "git",
            "params": {
                "url": "https://gitlab.com/openbravo/product/pmods/org.openbravo.retail.poshwmanager",
                "ver": "release/21Q2"
            },
            "javapackage": "org.openbravo.retail.poshwmanager"
        },
        {
            "method": "git",
            "params": {
                "url": "https://gitlab.com/openbravo/product/pmods/org.openbravo.mobile.core",
                "ver": "release/21Q2"
            },
            "javapackage": "org.openbravo.mobile.core"
        },
        {
            "method": "git",
            "params": {
                "url": "https://gitlab.com/openbravo/product/pmods/org.openbravo.retail.config",
                "ver": "release/21Q2"
            },
            "javapackage": "org.openbravo.retail.config"
        },
        {
            "method": "git",
            "params": {
                "url": "https://gitlab.com/openbravo/product/pmods/org.openbravo.retail.posterminal",
                "ver": "release/21Q2"
            },
            "javapackage": "org.openbravo.retail.posterminal"
        },
        {
            "method": "git",
            "params": {
                "url": "https://gitlab.com/openbravo/product/pmods/org.openbravo.retail.discounts",
                "ver": "release/21Q2"
            },
            "javapackage": "org.openbravo.retail.discounts"
        },
        {
            "method": "git",
            "params": {
                "url": "https://gitlab.com/openbravo/product/pmods/org.openbravo.financial.multitaxcategory",
                "ver": "b2706bf3839921965d42c8f7f3ab7353852ee0bf"
            },
            "javapackage": "org.openbravo.financial.multitaxcategory"
        },
        {
            "method": "git",
            "params": {
                "url": "https://gitlab.com/openbravo/product/pmods/org.openbravo.retail.servicesequence",
                "ver": "b73f6c2aa0655e8ad7e5bccb54271fb583a54331"
            },
            "javapackage": "org.openbravo.retail.servicesequence"
        },
        {
            "method": "git",
            "params": {
                "url": "https://gitlab.com/openbravo/ci/modules/org.openbravo.retail.testsampledata",
                "ver": "d821c102fc526ba5d3908e2808c5c0678c14cbc6"
            },
            "javapackage": "org.openbravo.retail.testsampledata"
        },
        {
            "method": "git",
            "params": {
                "url": "https://gitlab.com/openbravo/ci/modules/org.openbravo.retail.unittest",
                "ver": "f41d31b444a27374de81dee707a9eb66410a134a"
            },
            "javapackage": "org.openbravo.retail.unittest"
        },
        {
            "method": "git",
            "params": {
                "url": "https://gitlab.com/openbravo/product/pmods/org.openbravo.retail.productcost",
                "ver": "e4dc9c7c0dacd87ae8a71bbf9bb2e92ec8300c21"
            },
            "javapackage": "org.openbravo.retail.productcost"
        },
        {
            "method": "git",
            "params": {
                "url": "https://gitlab.com/openbravo/ci/modules/org.openbravo.test.mobile.sampledata",
                "ver": "06c73a6a13ee60e3c9a05761abfc12554e3e0b35"
            },
            "javapackage": "org.openbravo.test.mobile.sampledata"
        },
        {
            "method": "git",
            "params": {
                "url": "https://gitlab.com/openbravo/product/mods/org.openbravo.module.languagelocalname",
                "ver": "2a13a60024ed7620526de0709257251e809395ea"
            },
            "javapackage": "org.openbravo.module.languagelocalname"
        },
        {
            "method": "git",
            "params": {
                "url": "https://gitlab.com/openbravo/product/pmods/org.openbravo.warehouse.advancedwarehouseoperations",
                "ver": "9905855d5924ffdb246da4f8fe569ab6510ada54"
            },
            "javapackage": "org.openbravo.warehouse.advancedwarehouseoperations"
        },
        {
            "method": "git",
            "params": {
                "url": "https://gitlab.com/openbravo/product/pmods/org.openbravo.warehouse.advancedwarehouseoperations.printing.bartender",
                "ver": "9729c2ad28edf95e70a69779c58cf875c15a75b2"
            },
            "javapackage": "org.openbravo.warehouse.advancedwarehouseoperations.printing.bartender"
        },
        {
            "method": "git",
            "params": {
                "url": "https://gitlab.com/openbravo/product/pmods/org.openbravo.warehouse.advancedwarehouseoperations.template",
                "ver": "cb0042247753c7d673c9f859924c626073ccd3f4"
            },
            "javapackage": "org.openbravo.warehouse.advancedwarehouseoperations.template"
        },
        {
            "method": "git",
            "params": {
                "url": "https://gitlab.com/openbravo/ci/modules/org.openbravo.warehouse.advancedwarehouseoperations.sampledata",
                "ver": "8a91a94c025c94520bac413afefdb5742cb81618"
            },
            "javapackage": "org.openbravo.warehouse.advancedwarehouseoperations.sampledata"
        },
        {
            "method": "git",
            "params": {
                "url": "https://gitlab.com/openbravo/product/mods/org.openbravo.distributionorder",
                "ver": "ae6aaf9a7b6714df7d9eb7ea5c8c2d8f3f98b007"
            },
            "javapackage": "org.openbravo.distributionorder"
        },
        {
            "method": "git",
            "params": {
                "url": "https://gitlab.com/openbravo/product/pmods/org.openbravo.warehouse.advancedwarehouseoperations.distributionorders",
                "ver": "eaeb60ca53e2315424224492ae9502412301d82d"
            },
            "javapackage": "org.openbravo.warehouse.advancedwarehouseoperations.distributionorders"
        },
        {
            "method": "git",
            "params": {
                "url": "https://gitlab.com/openbravo/product/pmods/org.openbravo.warehouse.advancedwarehouseoperations.retailconnector",
                "ver": "13e2bc46d8fe52211800daed67d5050945aaffa1"
            },
            "javapackage": "org.openbravo.warehouse.advancedwarehouseoperations.retailconnector"
        },
        {
            "method": "git",
            "params": {
                "url": "https://gitlab.com/openbravo/product/mods/org.openbravo.utility.opencsv",
                "ver": "2d9c6331e4f88d33892779946e771391ce1e4ed2"
            },
            "javapackage": "org.openbravo.utility.opencsv"
        },
        {
            "method": "git",
            "params": {
                "url": "https://gitlab.com/openbravo/product/pmods/org.openbravo.externaldata.integration",
                "ver": "96afbf673cf02343c1710791c08497022b6520cf"
            },
            "javapackage": "org.openbravo.externaldata.integration"
        },
        {
            "method": "git",
            "params": {
                "url": "https://gitlab.com/openbravo/product/pmods/org.openbravo.service.external.integration",
                "ver": "79ae0bafb921b83a5f2eacd8ebd394c3460bfe92"
            },
            "javapackage": "org.openbravo.service.external.integration"
        },
        {
            "method": "git",
            "params": {
                "url": "https://gitlab.com/openbravo/product/pmods/org.openbravo.retail.orderpreparation",
                "ver": "e99617e612e5e520ba1ce42111d047339a2ed858"
            },
            "javapackage": "org.openbravo.retail.orderpreparation"
        },
        {
            "method": "git",
            "params": {
                "url": "https://gitlab.com/openbravo/product/pmods/org.openbravo.retail.camerabarcodescanner",
                "ver": "9b379ecd652dce1df10489769d6c7ecd5ea175de"
            },
            "javapackage": "org.openbravo.retail.camerabarcodescanner"
        },
        {
            "method": "git",
            "params": {
                "url": "https://gitlab.com/openbravo/product/pmods/org.openbravo.retail.camerabarcodescanner.posterminal",
                "ver": "b8dcbc0cc73711d824d347047a310b00137bf44a"
            },
            "javapackage": "org.openbravo.retail.camerabarcodescanner.posterminal"
        },
        {
            "method": "git",
            "params": {
                "url": "https://gitlab.com/openbravo/product/pmods/org.openbravo.retail.productrelevance",
                "ver": "3d8c6d7af3dd7b3d0ceeafd15c771039601d7875"
            },
            "javapackage": "org.openbravo.retail.productrelevance"
        },
        {
            "method": "git",
            "params": {
                "url": "https://gitlab.com/openbravo/product/pmods/org.openbravo.module.resources",
                "ver": "6e5e5c2d30685d7d813ac8f65865d08fef1c6dba"
            },
            "javapackage": "org.openbravo.module.resources"
        },
        {
            "method": "git",
            "params": {
                "url": "https://gitlab.com/openbravo/product/mods/org.openbravo.module.productbomversion",
                "ver": "3725a8d03f0d0ac1bbc5759b7a1f9ac1207dc7b2"
            },
            "javapackage": "org.openbravo.module.productbomversion"
        },
        {
            "method": "git",
            "params": {
                "url": "https://gitlab.com/openbravo/product/mods/org.openbravo.module.productbomversion.template",
                "ver": "360cefd36f7df88b51cc41ab52250eebb80f5c85"
            },
            "javapackage": "org.openbravo.module.productbomversion.template"
        },
        {
            "method": "git",
            "params": {
                "url": "https://gitlab.com/openbravo/product/pmods/org.openbravo.portal.member.roles",
                "ver": "7ce67dbb7ab476aebd3b3ddc05a70eaeb232992b"
            },
            "javapackage": "org.openbravo.portal.member.roles"
        },
        {
            "method": "git",
            "params": {
                "url": "https://gitlab.com/openbravo/product/pmods/org.openbravo.retail.productranking",
                "ver": "828cd3f433054698d1060d41d685f0b6108d00e0"
            },
            "javapackage": "org.openbravo.retail.productranking"
        },
        {
            "method": "git",
            "params": {
                "url": "https://gitlab.com/openbravo/product/pmods/org.openbravo.retail.paymentmethodadditionalinfo",
                "ver": "bff84362939e7e0d10a8028bd8246f81fbdb6220"
            },
            "javapackage": "org.openbravo.retail.paymentmethodadditionalinfo"
        },
        {
            "method": "git",
            "params": {
                "url": "https://gitlab.com/openbravo/product/mods/org.openbravo.module.cashvat",
                "ver": "4ef2774514cb2ca0c7f763ab11002fd0f88135e8"
            },
            "javapackage": "org.openbravo.module.cashvat"
        },
        {
            "method": "git",
            "params": {
                "url": "https://gitlab.com/openbravo/product/pmods/org.openbravo.api.ticket",
                "ver": "1d0bb6ad829ca583a049a1d1d4910914c11a1a0b"
            },
            "javapackage": "org.openbravo.api.ticket"
        },
        {
            "method": "git",
            "params": {
                "url": "https://gitlab.com/openbravo/product/pmods/org.openbravo.service.jsexecutor",
                "ver": "cb2fbbbb353fe2d059cfc62e7bdffc19f5363e46"
            },
            "javapackage": "org.openbravo.service.jsexecutor"
        },
        {
            "method": "git",
            "params": {
                "url": "https://gitlab.com/openbravo/product/pmods/org.openbravo.service.openapi",
                "ver": "bdcfd17759bf58fc89ae99e55d43be0692a33581"
            },
            "javapackage": "org.openbravo.service.openapi"
        },
        {
            "method": "git",
            "params": {
                "url": "https://gitlab.com/openbravo/product/pmods/org.openbravo.discounts",
                "ver": "33b396ae5f2ee0edd714285e926c54539368fb98"
            },
            "javapackage": "org.openbravo.discounts"
        },
        {
            "method": "git",
            "params": {
                "url": "https://gitlab.com/openbravo/product/pmods/org.openbravo.taxes",
                "ver": "541b70d53cfabbaeb18762bee6761304872c5628"
            },
            "javapackage": "org.openbravo.taxes"
        },
        {
            "method": "git",
            "params": {
                "url": "https://gitlab.com/openbravo/product/pmods/org.openbravo.oms",
                "ver": "096e86519613fd458e7d307fc40e72f1bdabf54f"
            },
            "javapackage": "org.openbravo.oms"
        },
        {
            "method": "git",
            "params": {
                "url": "https://gitlab.com/openbravo/product/pmods/org.openbravo.warehouse.advancedwarehouseoperations.batchwavepicking",
                "ver": "0a1c8abb4d374e1c432f23260ef08e0a17c65388"
            },
            "javapackage": "org.openbravo.warehouse.advancedwarehouseoperations.batchwavepicking"
        },
        {
            "method": "git",
            "params": {
                "url": "https://gitlab.com/openbravo/product/pmods/org.openbravo.warehouse.advancedwarehouseoperations.operatorloadbalancing",
                "ver": "ccc7af485232a4e2f5a3c953231f3f683b0dcb0c"
            },
            "javapackage": "org.openbravo.warehouse.advancedwarehouseoperations.operatorloadbalancing"
        },
        {
            "method": "git",
            "params": {
                "url": "https://gitlab.com/openbravo/product/pmods/org.openbravo.warehouse.advancedwarehouseoperations.selfreplenishment",
                "ver": "720cf313cb4d8c2793dad442a5bffd6cdcc4f512"
            },
            "javapackage": "org.openbravo.warehouse.advancedwarehouseoperations.selfreplenishment"
        },
        {
            "method": "git",
            "params": {
                "url": "https://gitlab.com/openbravo/product/pmods/org.openbravo.warehouse.advancedwarehouseoperations.edl",
                "ver": "c61c99d794100333a5c66ecb4d8186991a2f4127"
            },
            "javapackage": "org.openbravo.warehouse.advancedwarehouseoperations.edl"
        },
        {
            "method": "git",
            "params": {
                "url": "https://gitlab.com/openbravo/product/mods/org.openbravo.france.ecotax",
                "ver": "c0ad2f0594c2b3a53c64705c7e62103108b043c5"
            },
            "javapackage": "org.openbravo.france.ecotax"
        },
        {
            "method": "git",
            "params": {
                "url": "https://gitlab.com/openbravo/ci/modules/org.openbravo.retail.samplebpintegration",
                "ver": "b102a95e44822d304c67f99d0fd43f97cfbea1d6"
            },
            "javapackage": "org.openbravo.retail.samplebpintegration"
        }
    ],
    "scripts": {
        "checks-without-tomcat": [
            {
                "file": "obcfr/obcfr_junit.sh",
                "params": [
                    "$WORKSPACE"
                ]
            }
        ]
    }
}
