{
    "desc": "Config for control group job used for test with only the retail pack",
    "erp": {
        "method": "git",
        "params": {
            "url": "https://gitlab.com/openbravo/product/openbravo",
            "ver": "master"
        }
    },
    "mods": [
        {
            "method": "git",
            "params": {
                "url": "https://gitlab.com/openbravo/product/pmods/org.openbravo.mobile.core",
                "ver": "master"
            },
            "javapackage": "org.openbravo.mobile.core"
        },
        {
            "method": "git",
            "params": {
                "url": "https://gitlab.com/openbravo/product/pmods/org.openbravo.retail.pack",
                "ver": "master"
            },
            "javapackage": "org.openbravo.retail.pack"
        },
        {
            "method": "git",
            "params": {
                "url": "https://gitlab.com/openbravo/product/pmods/org.openbravo.retail.config",
                "ver": "master"
            },
            "javapackage": "org.openbravo.retail.config"
        },
        {
            "method": "git",
            "params": {
                "url": "https://gitlab.com/openbravo/product/pmods/org.openbravo.retail.posterminal",
                "ver": "master"
            },
            "javapackage": "org.openbravo.retail.posterminal"
        },
        {
            "method": "git",
            "params": {
                "url": "https://gitlab.com/openbravo/product/pmods/org.openbravo.retail.poshwmanager",
                "ver": "master"
            },
            "javapackage": "org.openbravo.retail.poshwmanager"
        },
        {
            "method": "git",
            "params": {
                "url": "https://gitlab.com/openbravo/product/pmods/org.openbravo.retail.discounts",
                "ver": "master"
            },
            "javapackage": "org.openbravo.retail.discounts"
        },
        {
            "method": "git",
            "params": {
                "url": "https://gitlab.com/openbravo/product/pmods/org.openbravo.retail.sampledata",
                "ver": "master"
            },
            "javapackage": "org.openbravo.retail.sampledata"
        },
        {
            "method": "git",
            "params": {
                "url": "https://gitlab.com/openbravo/product/pmods/org.openbravo.retail.returns",
                "ver": "master"
            },
            "javapackage": "org.openbravo.retail.returns"
        }
    ]
}